^E:\GIT\TASK6_1_MASSIVE\TASK6_1_MASSIVE\TASK6_1_MASSIVE.CPP
E:\GIT\TASK6_1_MASSIVE\TASK6_1_MASSIVE\DEBUG\VC142.PDB
E:\GIT\TASK6_1_MASSIVE\TASK6_1_MASSIVE\DEBUG\VC142.IDB
E:\GIT\TASK6_1_MASSIVE\TASK6_1_MASSIVE\DEBUG\TASK6_1_MASSIVE.OBJ
